{
	"status":0,
	"status_txt":"errors",
	"message":"Gagal mengimpor data!.",
	"data":[
		 {
				"header":{
					 "no_order":"ORD0001",
					 "no_so":329000233,
					 "produsen":"B000",
					 "pembeli":1000004385,
					 "no_spjb":"4385\/SPJB-NGAWI.05.20\/25\/PKG\/2020",
					 "tanggal_pembuatan_so":"22.01.2020",
					 "kode_provinsi":"0035",
					 "nama_provinsi":null,
					 "kode_kotakabupaten":3521,
					 "nama_kotakab":null,
					 "syarat_penebusan":"FOT",
					 "tanggal_request_mulai_pengambilan":"22.01.2020",
					 "tipe_pembayaran":"CASH",
					 "jenis_kendaraan":"TRUK",
					 "status_so":"Submitted",
					 "tanggal_batas_pengambilan":"22.01.2020",
					 "jumlah_harga_sebelum_pajak":5420727,
					 "ppn":654545,
					 "pph_22":null,
					 "uang_muka":"\u00a06075272",
					 "total_harga":"\u00a06075272",
					 "kode_kecamatan":352101,
					 "nama_kecamatan":null,
					 "pengecer":null,
					 "kode_gudang":"B399",
					 "qty_urea_ton":2,
					 "qty_npk_ton":null,
					 "qty_organik_ton":null,
					 "qty_za_ton":null,
					 "qty_sp36_ton":null
				},
				"childs":[
					 {
							"product_id":"P01",
							"qty":2,
							"retail_id":6301,
							"plant_id":778,
							"material_list_id":20440,
							"pph":null,
							"ppn":654545,
							"total_price":"\u00a06075272",
							"total_price_before_ppn":5420727
					 }
				]
		 },
		 {
				"header":{
					 "no_order":"ORD0001",
					 "no_so":329000233,
					 "produsen":"B000",
					 "pembeli":1000004385,
					 "no_spjb":"4385\/SPJB-NGAWI.05.20\/25\/PKG\/2020",
					 "tanggal_pembuatan_so":"22.01.2020",
					 "kode_provinsi":"0035",
					 "nama_provinsi":null,
					 "kode_kotakabupaten":3521,
					 "nama_kotakab":null,
					 "syarat_penebusan":"FOT",
					 "tanggal_request_mulai_pengambilan":"22.01.2020",
					 "tipe_pembayaran":"CASH",
					 "jenis_kendaraan":"TRUK",
					 "status_so":"Submitted",
					 "tanggal_batas_pengambilan":"22.01.2020",
					 "jumlah_harga_sebelum_pajak":5420727,
					 "ppn":654545,
					 "pph_22":null,
					 "uang_muka":"\u00a06075272",
					 "total_harga":"\u00a06075272",
					 "kode_kecamatan":352102,
					 "nama_kecamatan":null,
					 "pengecer":null,
					 "kode_gudang":"B399",
					 "qty_urea_ton":2,
					 "qty_npk_ton":null,
					 "qty_organik_ton":null,
					 "qty_za_ton":null,
					 "qty_sp36_ton":null
				},
				"childs":[
					 {
							"product_id":"P01",
							"qty":2,
							"retail_id":6302,
							"plant_id":778,
							"material_list_id":20440,
							"pph":null,
							"ppn":654545,
							"total_price":"\u00a06075272",
							"total_price_before_ppn":5420727
					 }
				]
		 },
		 {
				"row":{
					 "no_order":null,
					 "no_so":null,
					 "produsen":null,
					 "pembeli":null,
					 "no_spjb":null,
					 "tanggal_pembuatan_so":null,
					 "kode_provinsi":"0000",
					 "nama_provinsi":null,
					 "kode_kotakabupaten":null,
					 "nama_kotakab":null,
					 "syarat_penebusan":null,
					 "tanggal_request_mulai_pengambilan":null,
					 "tipe_pembayaran":null,
					 "jenis_kendaraan":null,
					 "status_so":null,
					 "tanggal_batas_pengambilan":null,
					 "jumlah_harga_sebelum_pajak":null,
					 "ppn":null,
					 "pph_22":null,
					 "uang_muka":null,
					 "total_harga":null,
					 "kode_kecamatan":null,
					 "nama_kecamatan":null,
					 "pengecer":null,
					 "kode_gudang":null,
					 "qty_urea_ton":null,
					 "qty_npk_ton":null,
					 "qty_organik_ton":null,
					 "qty_za_ton":null,
					 "qty_sp36_ton":null
				},
				"messages":{
					 "no_order":[
							"The no order field is required."
					 ],
					 "no_so":[
							"The no so field is required."
					 ],
					 "kode_provinsi":[
							"The selected kode provinsi is invalid."
					 ],
					 "kode_kotakabupaten":[
							"The kode kotakabupaten field is required."
					 ],
					 "kode_kecamatan":[
							"The kode kecamatan field is required."
					 ],
					 "total_harga":[
							"The total harga field is required."
					 ]
				}
		 },
		 {
				"row":{
					 "no_order":null,
					 "no_so":null,
					 "produsen":null,
					 "pembeli":null,
					 "no_spjb":null,
					 "tanggal_pembuatan_so":null,
					 "kode_provinsi":"0000",
					 "nama_provinsi":null,
					 "kode_kotakabupaten":null,
					 "nama_kotakab":null,
					 "syarat_penebusan":null,
					 "tanggal_request_mulai_pengambilan":null,
					 "tipe_pembayaran":null,
					 "jenis_kendaraan":null,
					 "status_so":null,
					 "tanggal_batas_pengambilan":null,
					 "jumlah_harga_sebelum_pajak":null,
					 "ppn":null,
					 "pph_22":null,
					 "uang_muka":null,
					 "total_harga":null,
					 "kode_kecamatan":null,
					 "nama_kecamatan":null,
					 "pengecer":null,
					 "kode_gudang":null,
					 "qty_urea_ton":null,
					 "qty_npk_ton":null,
					 "qty_organik_ton":null,
					 "qty_za_ton":null,
					 "qty_sp36_ton":null
				},
				"messages":{
					 "no_order":[
							"The no order field is required."
					 ],
					 "no_so":[
							"The no so field is required."
					 ],
					 "kode_provinsi":[
							"The selected kode provinsi is invalid."
					 ],
					 "kode_kotakabupaten":[
							"The kode kotakabupaten field is required."
					 ],
					 "kode_kecamatan":[
							"The kode kecamatan field is required."
					 ],
					 "total_harga":[
							"The total harga field is required."
					 ]
				}
		 },
		 {
				"row":{
					 "no_order":null,
					 "no_so":null,
					 "produsen":null,
					 "pembeli":null,
					 "no_spjb":null,
					 "tanggal_pembuatan_so":null,
					 "kode_provinsi":"0000",
					 "nama_provinsi":null,
					 "kode_kotakabupaten":null,
					 "nama_kotakab":null,
					 "syarat_penebusan":null,
					 "tanggal_request_mulai_pengambilan":null,
					 "tipe_pembayaran":null,
					 "jenis_kendaraan":null,
					 "status_so":null,
					 "tanggal_batas_pengambilan":null,
					 "jumlah_harga_sebelum_pajak":null,
					 "ppn":null,
					 "pph_22":null,
					 "uang_muka":null,
					 "total_harga":null,
					 "kode_kecamatan":null,
					 "nama_kecamatan":null,
					 "pengecer":null,
					 "kode_gudang":null,
					 "qty_urea_ton":null,
					 "qty_npk_ton":null,
					 "qty_organik_ton":null,
					 "qty_za_ton":null,
					 "qty_sp36_ton":null
				},
				"messages":{
					 "no_order":[
							"The no order field is required."
					 ],
					 "no_so":[
							"The no so field is required."
					 ],
					 "kode_provinsi":[
							"The selected kode provinsi is invalid."
					 ],
					 "kode_kotakabupaten":[
							"The kode kotakabupaten field is required."
					 ],
					 "kode_kecamatan":[
							"The kode kecamatan field is required."
					 ],
					 "total_harga":[
							"The total harga field is required."
					 ]
				}
		 },
		 {
				"row":{
					 "no_order":null,
					 "no_so":null,
					 "produsen":null,
					 "pembeli":null,
					 "no_spjb":null,
					 "tanggal_pembuatan_so":null,
					 "kode_provinsi":"0000",
					 "nama_provinsi":null,
					 "kode_kotakabupaten":null,
					 "nama_kotakab":null,
					 "syarat_penebusan":null,
					 "tanggal_request_mulai_pengambilan":null,
					 "tipe_pembayaran":null,
					 "jenis_kendaraan":null,
					 "status_so":null,
					 "tanggal_batas_pengambilan":null,
					 "jumlah_harga_sebelum_pajak":null,
					 "ppn":null,
					 "pph_22":null,
					 "uang_muka":null,
					 "total_harga":null,
					 "kode_kecamatan":null,
					 "nama_kecamatan":null,
					 "pengecer":null,
					 "kode_gudang":null,
					 "qty_urea_ton":null,
					 "qty_npk_ton":null,
					 "qty_organik_ton":null,
					 "qty_za_ton":null,
					 "qty_sp36_ton":null
				},
				"messages":{
					 "no_order":[
							"The no order field is required."
					 ],
					 "no_so":[
							"The no so field is required."
					 ],
					 "kode_provinsi":[
							"The selected kode provinsi is invalid."
					 ],
					 "kode_kotakabupaten":[
							"The kode kotakabupaten field is required."
					 ],
					 "kode_kecamatan":[
							"The kode kecamatan field is required."
					 ],
					 "total_harga":[
							"The total harga field is required."
					 ]
				}
		 },
		 {
				"row":{
					 "no_order":null,
					 "no_so":null,
					 "produsen":null,
					 "pembeli":null,
					 "no_spjb":null,
					 "tanggal_pembuatan_so":null,
					 "kode_provinsi":"0000",
					 "nama_provinsi":null,
					 "kode_kotakabupaten":null,
					 "nama_kotakab":null,
					 "syarat_penebusan":null,
					 "tanggal_request_mulai_pengambilan":null,
					 "tipe_pembayaran":null,
					 "jenis_kendaraan":null,
					 "status_so":null,
					 "tanggal_batas_pengambilan":null,
					 "jumlah_harga_sebelum_pajak":null,
					 "ppn":null,
					 "pph_22":null,
					 "uang_muka":null,
					 "total_harga":null,
					 "kode_kecamatan":null,
					 "nama_kecamatan":null,
					 "pengecer":null,
					 "kode_gudang":null,
					 "qty_urea_ton":null,
					 "qty_npk_ton":null,
					 "qty_organik_ton":null,
					 "qty_za_ton":null,
					 "qty_sp36_ton":null
				},
				"messages":{
					 "no_order":[
							"The no order field is required."
					 ],
					 "no_so":[
							"The no so field is required."
					 ],
					 "kode_provinsi":[
							"The selected kode provinsi is invalid."
					 ],
					 "kode_kotakabupaten":[
							"The kode kotakabupaten field is required."
					 ],
					 "kode_kecamatan":[
							"The kode kecamatan field is required."
					 ],
					 "total_harga":[
							"The total harga field is required."
					 ]
				}
		 },
		 {
				"row":{
					 "no_order":null,
					 "no_so":null,
					 "produsen":null,
					 "pembeli":null,
					 "no_spjb":null,
					 "tanggal_pembuatan_so":null,
					 "kode_provinsi":"0000",
					 "nama_provinsi":null,
					 "kode_kotakabupaten":null,
					 "nama_kotakab":null,
					 "syarat_penebusan":null,
					 "tanggal_request_mulai_pengambilan":null,
					 "tipe_pembayaran":null,
					 "jenis_kendaraan":null,
					 "status_so":null,
					 "tanggal_batas_pengambilan":null,
					 "jumlah_harga_sebelum_pajak":null,
					 "ppn":null,
					 "pph_22":null,
					 "uang_muka":null,
					 "total_harga":null,
					 "kode_kecamatan":null,
					 "nama_kecamatan":null,
					 "pengecer":null,
					 "kode_gudang":null,
					 "qty_urea_ton":null,
					 "qty_npk_ton":null,
					 "qty_organik_ton":null,
					 "qty_za_ton":null,
					 "qty_sp36_ton":null
				},
				"messages":{
					 "no_order":[
							"The no order field is required."
					 ],
					 "no_so":[
							"The no so field is required."
					 ],
					 "kode_provinsi":[
							"The selected kode provinsi is invalid."
					 ],
					 "kode_kotakabupaten":[
							"The kode kotakabupaten field is required."
					 ],
					 "kode_kecamatan":[
							"The kode kecamatan field is required."
					 ],
					 "total_harga":[
							"The total harga field is required."
					 ]
				}
		 },
		 {
				"row":{
					 "no_order":null,
					 "no_so":null,
					 "produsen":null,
					 "pembeli":null,
					 "no_spjb":null,
					 "tanggal_pembuatan_so":null,
					 "kode_provinsi":"0000",
					 "nama_provinsi":null,
					 "kode_kotakabupaten":null,
					 "nama_kotakab":null,
					 "syarat_penebusan":null,
					 "tanggal_request_mulai_pengambilan":null,
					 "tipe_pembayaran":null,
					 "jenis_kendaraan":null,
					 "status_so":null,
					 "tanggal_batas_pengambilan":null,
					 "jumlah_harga_sebelum_pajak":null,
					 "ppn":null,
					 "pph_22":null,
					 "uang_muka":null,
					 "total_harga":null,
					 "kode_kecamatan":null,
					 "nama_kecamatan":null,
					 "pengecer":null,
					 "kode_gudang":null,
					 "qty_urea_ton":null,
					 "qty_npk_ton":null,
					 "qty_organik_ton":null,
					 "qty_za_ton":null,
					 "qty_sp36_ton":null
				},
				"messages":{
					 "no_order":[
							"The no order field is required."
					 ],
					 "no_so":[
							"The no so field is required."
					 ],
					 "kode_provinsi":[
							"The selected kode provinsi is invalid."
					 ],
					 "kode_kotakabupaten":[
							"The kode kotakabupaten field is required."
					 ],
					 "kode_kecamatan":[
							"The kode kecamatan field is required."
					 ],
					 "total_harga":[
							"The total harga field is required."
					 ]
				}
		 },
		 {
				"row":{
					 "no_order":null,
					 "no_so":null,
					 "produsen":null,
					 "pembeli":null,
					 "no_spjb":null,
					 "tanggal_pembuatan_so":null,
					 "kode_provinsi":"0000",
					 "nama_provinsi":null,
					 "kode_kotakabupaten":null,
					 "nama_kotakab":null,
					 "syarat_penebusan":null,
					 "tanggal_request_mulai_pengambilan":null,
					 "tipe_pembayaran":null,
					 "jenis_kendaraan":null,
					 "status_so":null,
					 "tanggal_batas_pengambilan":null,
					 "jumlah_harga_sebelum_pajak":null,
					 "ppn":null,
					 "pph_22":null,
					 "uang_muka":null,
					 "total_harga":null,
					 "kode_kecamatan":null,
					 "nama_kecamatan":null,
					 "pengecer":null,
					 "kode_gudang":null,
					 "qty_urea_ton":null,
					 "qty_npk_ton":null,
					 "qty_organik_ton":null,
					 "qty_za_ton":null,
					 "qty_sp36_ton":null
				},
				"messages":{
					 "no_order":[
							"The no order field is required."
					 ],
					 "no_so":[
							"The no so field is required."
					 ],
					 "kode_provinsi":[
							"The selected kode provinsi is invalid."
					 ],
					 "kode_kotakabupaten":[
							"The kode kotakabupaten field is required."
					 ],
					 "kode_kecamatan":[
							"The kode kecamatan field is required."
					 ],
					 "total_harga":[
							"The total harga field is required."
					 ]
				}
		 },
		 {
				"row":{
					 "no_order":null,
					 "no_so":null,
					 "produsen":null,
					 "pembeli":null,
					 "no_spjb":null,
					 "tanggal_pembuatan_so":null,
					 "kode_provinsi":"0000",
					 "nama_provinsi":null,
					 "kode_kotakabupaten":null,
					 "nama_kotakab":null,
					 "syarat_penebusan":null,
					 "tanggal_request_mulai_pengambilan":null,
					 "tipe_pembayaran":null,
					 "jenis_kendaraan":null,
					 "status_so":null,
					 "tanggal_batas_pengambilan":null,
					 "jumlah_harga_sebelum_pajak":null,
					 "ppn":null,
					 "pph_22":null,
					 "uang_muka":null,
					 "total_harga":null,
					 "kode_kecamatan":null,
					 "nama_kecamatan":null,
					 "pengecer":null,
					 "kode_gudang":null,
					 "qty_urea_ton":null,
					 "qty_npk_ton":null,
					 "qty_organik_ton":null,
					 "qty_za_ton":null,
					 "qty_sp36_ton":null
				},
				"messages":{
					 "no_order":[
							"The no order field is required."
					 ],
					 "no_so":[
							"The no so field is required."
					 ],
					 "kode_provinsi":[
							"The selected kode provinsi is invalid."
					 ],
					 "kode_kotakabupaten":[
							"The kode kotakabupaten field is required."
					 ],
					 "kode_kecamatan":[
							"The kode kecamatan field is required."
					 ],
					 "total_harga":[
							"The total harga field is required."
					 ]
				}
		 },
		 {
				"row":{
					 "no_order":null,
					 "no_so":null,
					 "produsen":null,
					 "pembeli":null,
					 "no_spjb":null,
					 "tanggal_pembuatan_so":null,
					 "kode_provinsi":"0000",
					 "nama_provinsi":null,
					 "kode_kotakabupaten":null,
					 "nama_kotakab":null,
					 "syarat_penebusan":null,
					 "tanggal_request_mulai_pengambilan":null,
					 "tipe_pembayaran":null,
					 "jenis_kendaraan":null,
					 "status_so":null,
					 "tanggal_batas_pengambilan":null,
					 "jumlah_harga_sebelum_pajak":null,
					 "ppn":null,
					 "pph_22":null,
					 "uang_muka":null,
					 "total_harga":null,
					 "kode_kecamatan":null,
					 "nama_kecamatan":null,
					 "pengecer":null,
					 "kode_gudang":null,
					 "qty_urea_ton":null,
					 "qty_npk_ton":null,
					 "qty_organik_ton":null,
					 "qty_za_ton":null,
					 "qty_sp36_ton":null
				},
				"messages":{
					 "no_order":[
							"The no order field is required."
					 ],
					 "no_so":[
							"The no so field is required."
					 ],
					 "kode_provinsi":[
							"The selected kode provinsi is invalid."
					 ],
					 "kode_kotakabupaten":[
							"The kode kotakabupaten field is required."
					 ],
					 "kode_kecamatan":[
							"The kode kecamatan field is required."
					 ],
					 "total_harga":[
							"The total harga field is required."
					 ]
				}
		 },
		 {
				"row":{
					 "no_order":null,
					 "no_so":null,
					 "produsen":null,
					 "pembeli":null,
					 "no_spjb":null,
					 "tanggal_pembuatan_so":null,
					 "kode_provinsi":"0000",
					 "nama_provinsi":null,
					 "kode_kotakabupaten":null,
					 "nama_kotakab":null,
					 "syarat_penebusan":null,
					 "tanggal_request_mulai_pengambilan":null,
					 "tipe_pembayaran":null,
					 "jenis_kendaraan":null,
					 "status_so":null,
					 "tanggal_batas_pengambilan":null,
					 "jumlah_harga_sebelum_pajak":null,
					 "ppn":null,
					 "pph_22":null,
					 "uang_muka":null,
					 "total_harga":null,
					 "kode_kecamatan":null,
					 "nama_kecamatan":null,
					 "pengecer":null,
					 "kode_gudang":null,
					 "qty_urea_ton":null,
					 "qty_npk_ton":null,
					 "qty_organik_ton":null,
					 "qty_za_ton":null,
					 "qty_sp36_ton":null
				},
				"messages":{
					 "no_order":[
							"The no order field is required."
					 ],
					 "no_so":[
							"The no so field is required."
					 ],
					 "kode_provinsi":[
							"The selected kode provinsi is invalid."
					 ],
					 "kode_kotakabupaten":[
							"The kode kotakabupaten field is required."
					 ],
					 "kode_kecamatan":[
							"The kode kecamatan field is required."
					 ],
					 "total_harga":[
							"The total harga field is required."
					 ]
				}
		 },
		 {
				"row":{
					 "no_order":null,
					 "no_so":null,
					 "produsen":null,
					 "pembeli":null,
					 "no_spjb":null,
					 "tanggal_pembuatan_so":null,
					 "kode_provinsi":"0000",
					 "nama_provinsi":null,
					 "kode_kotakabupaten":null,
					 "nama_kotakab":null,
					 "syarat_penebusan":null,
					 "tanggal_request_mulai_pengambilan":null,
					 "tipe_pembayaran":null,
					 "jenis_kendaraan":null,
					 "status_so":null,
					 "tanggal_batas_pengambilan":null,
					 "jumlah_harga_sebelum_pajak":null,
					 "ppn":null,
					 "pph_22":null,
					 "uang_muka":null,
					 "total_harga":null,
					 "kode_kecamatan":null,
					 "nama_kecamatan":null,
					 "pengecer":null,
					 "kode_gudang":null,
					 "qty_urea_ton":null,
					 "qty_npk_ton":null,
					 "qty_organik_ton":null,
					 "qty_za_ton":null,
					 "qty_sp36_ton":null
				},
				"messages":{
					 "no_order":[
							"The no order field is required."
					 ],
					 "no_so":[
							"The no so field is required."
					 ],
					 "kode_provinsi":[
							"The selected kode provinsi is invalid."
					 ],
					 "kode_kotakabupaten":[
							"The kode kotakabupaten field is required."
					 ],
					 "kode_kecamatan":[
							"The kode kecamatan field is required."
					 ],
					 "total_harga":[
							"The total harga field is required."
					 ]
				}
		 },
		 {
				"row":{
					 "no_order":null,
					 "no_so":null,
					 "produsen":null,
					 "pembeli":null,
					 "no_spjb":null,
					 "tanggal_pembuatan_so":null,
					 "kode_provinsi":"0000",
					 "nama_provinsi":null,
					 "kode_kotakabupaten":null,
					 "nama_kotakab":null,
					 "syarat_penebusan":null,
					 "tanggal_request_mulai_pengambilan":null,
					 "tipe_pembayaran":null,
					 "jenis_kendaraan":null,
					 "status_so":null,
					 "tanggal_batas_pengambilan":null,
					 "jumlah_harga_sebelum_pajak":null,
					 "ppn":null,
					 "pph_22":null,
					 "uang_muka":null,
					 "total_harga":null,
					 "kode_kecamatan":null,
					 "nama_kecamatan":null,
					 "pengecer":null,
					 "kode_gudang":null,
					 "qty_urea_ton":null,
					 "qty_npk_ton":null,
					 "qty_organik_ton":null,
					 "qty_za_ton":null,
					 "qty_sp36_ton":null
				},
				"messages":{
					 "no_order":[
							"The no order field is required."
					 ],
					 "no_so":[
							"The no so field is required."
					 ],
					 "kode_provinsi":[
							"The selected kode provinsi is invalid."
					 ],
					 "kode_kotakabupaten":[
							"The kode kotakabupaten field is required."
					 ],
					 "kode_kecamatan":[
							"The kode kecamatan field is required."
					 ],
					 "total_harga":[
							"The total harga field is required."
					 ]
				}
		 },
		 {
				"row":{
					 "no_order":null,
					 "no_so":null,
					 "produsen":null,
					 "pembeli":null,
					 "no_spjb":null,
					 "tanggal_pembuatan_so":null,
					 "kode_provinsi":"0000",
					 "nama_provinsi":null,
					 "kode_kotakabupaten":null,
					 "nama_kotakab":null,
					 "syarat_penebusan":null,
					 "tanggal_request_mulai_pengambilan":null,
					 "tipe_pembayaran":null,
					 "jenis_kendaraan":null,
					 "status_so":null,
					 "tanggal_batas_pengambilan":null,
					 "jumlah_harga_sebelum_pajak":null,
					 "ppn":null,
					 "pph_22":null,
					 "uang_muka":null,
					 "total_harga":null,
					 "kode_kecamatan":null,
					 "nama_kecamatan":null,
					 "pengecer":null,
					 "kode_gudang":null,
					 "qty_urea_ton":null,
					 "qty_npk_ton":null,
					 "qty_organik_ton":null,
					 "qty_za_ton":null,
					 "qty_sp36_ton":null
				},
				"messages":{
					 "no_order":[
							"The no order field is required."
					 ],
					 "no_so":[
							"The no so field is required."
					 ],
					 "kode_provinsi":[
							"The selected kode provinsi is invalid."
					 ],
					 "kode_kotakabupaten":[
							"The kode kotakabupaten field is required."
					 ],
					 "kode_kecamatan":[
							"The kode kecamatan field is required."
					 ],
					 "total_harga":[
							"The total harga field is required."
					 ]
				}
		 },
		 {
				"row":{
					 "no_order":null,
					 "no_so":null,
					 "produsen":null,
					 "pembeli":null,
					 "no_spjb":null,
					 "tanggal_pembuatan_so":null,
					 "kode_provinsi":"0000",
					 "nama_provinsi":null,
					 "kode_kotakabupaten":null,
					 "nama_kotakab":null,
					 "syarat_penebusan":null,
					 "tanggal_request_mulai_pengambilan":null,
					 "tipe_pembayaran":null,
					 "jenis_kendaraan":null,
					 "status_so":null,
					 "tanggal_batas_pengambilan":null,
					 "jumlah_harga_sebelum_pajak":null,
					 "ppn":null,
					 "pph_22":null,
					 "uang_muka":null,
					 "total_harga":null,
					 "kode_kecamatan":null,
					 "nama_kecamatan":null,
					 "pengecer":null,
					 "kode_gudang":null,
					 "qty_urea_ton":null,
					 "qty_npk_ton":null,
					 "qty_organik_ton":null,
					 "qty_za_ton":null,
					 "qty_sp36_ton":null
				},
				"messages":{
					 "no_order":[
							"The no order field is required."
					 ],
					 "no_so":[
							"The no so field is required."
					 ],
					 "kode_provinsi":[
							"The selected kode provinsi is invalid."
					 ],
					 "kode_kotakabupaten":[
							"The kode kotakabupaten field is required."
					 ],
					 "kode_kecamatan":[
							"The kode kecamatan field is required."
					 ],
					 "total_harga":[
							"The total harga field is required."
					 ]
				}
		 }
	]
}