{
error: false,
message: "Berhasil mengambil data kabupaten",
daftar_kecamatan: [
{
id: "1301",
id_prov: "13",
nama: "Kab. Kepulauan Mentawai",
},
{
id: "1302",
id_prov: "13",
nama: "Kab. Pesisir Selatan",
},
{
id: "1303",
id_prov: "13",
nama: "Kab. Solok",
},
{
id: "1304",
id_prov: "13",
nama: "Kab. Sijunjung",
},
{
id: "1305",
id_prov: "13",
nama: "Kab. Tanah Datar",
},
{
id: "1306",
id_prov: "13",
nama: "Kab. Padang Pariaman",
},
{
id: "1307",
id_prov: "13",
nama: "Kab. Agam",
},
{
id: "1308",
id_prov: "13",
nama: "Kab. Lima Puluh Kota",
},
{
id: "1309",
id_prov: "13",
nama: "Kab. Pasaman",
},
{
id: "1310",
id_prov: "13",
nama: "Kab. Solok Selatan",
},
{
id: "1311",
id_prov: "13",
nama: "Kab. Dharmasraya",
},
{
id: "1312",
id_prov: "13",
nama: "Kab. Pasaman Barat",
},
{
id: "1371",
id_prov: "13",
nama: "Kota Padang",
},
{
id: "1372",
id_prov: "13",
nama: "Kota Solok",
},
{
id: "1373",
id_prov: "13",
nama: "Kota Sawah Lunto",
},
{
id: "1374",
id_prov: "13",
nama: "Kota Padang Panjang",
},
{
id: "1375",
id_prov: "13",
nama: "Kota Bukittinggi",
},
{
id: "1376",
id_prov: "13",
nama: "Kota Payakumbuh",
},
{
id: "1377",
id_prov: "13",
nama: "Kota Pariaman",
},
{
id: "1401",
id_prov: "14",
nama: "Kab. Kuantan Singingi",
},
{
id: "1402",
id_prov: "14",
nama: "Kab. Indragiri Hulu",
},
{
id: "1403",
id_prov: "14",
nama: "Kab. Indragiri Hilir",
},
{
id: "1404",
id_prov: "14",
nama: "Kab. Pelalawan",
},
{
id: "1405",
id_prov: "14",
nama: "Kab. S I A K",
},
{
id: "1406",
id_prov: "14",
nama: "Kab. Kampar",
},
{
id: "1407",
id_prov: "14",
nama: "Kab. Rokan Hulu",
},
{
id: "1408",
id_prov: "14",
nama: "Kab. Bengkalis",
},
{
id: "1409",
id_prov: "14",
nama: "Kab. Rokan Hilir",
},
{
id: "1410",
id_prov: "14",
nama: "Kab. Kepulauan Meranti",
},
{
id: "1471",
id_prov: "14",
nama: "Kota Pekanbaru",
},
{
id: "1473",
id_prov: "14",
nama: "Kota D U M A I",
},
{
id: "1501",
id_prov: "15",
nama: "Kab. Kerinci",
},
{
id: "1502",
id_prov: "15",
nama: "Kab. Merangin",
},
{
id: "1503",
id_prov: "15",
nama: "Kab. Sarolangun",
},
{
id: "1504",
id_prov: "15",
nama: "Kab. Batang Hari",
},
{
id: "1505",
id_prov: "15",
nama: "Kab. Muaro Jambi",
},
{
id: "1506",
id_prov: "15",
nama: "Kab. Tanjung Jabung Timur",
},
{
id: "1507",
id_prov: "15",
nama: "Kab. Tanjung Jabung Barat",
},
{
id: "1508",
id_prov: "15",
nama: "Kab. Tebo",
},
{
id: "1509",
id_prov: "15",
nama: "Kab. Bungo",
},
{
id: "1571",
id_prov: "15",
nama: "Kota Jambi",
},
{
id: "1572",
id_prov: "15",
nama: "Kota Sungai Penuh",
},
],
}
