{
    "status": 1,
    "status_txt": "success",
    "message": "Get data successfully.",
    "draw": 1,
    "recordsTotal": 1,
    "recordsFiltered": 10,
    "data": [
        {
            "id":"d1dc9a78-2c0d-48f0-99b3-31c1f6e0091f",
            "manufacturer": "PT. Pupuk Iskandar Muda",
            "code": "9c9efa04-cc81-4ae4-b1ae-44807ca9654a",
            "full_name": "SETIAMAN GULO",
            "status": "SETIAMAN GULO",
            "address": "Aktif",
            "province": "KP. KADU KANDEL, DS. SAMPANG BITUNG RT.001/RW.002",
            "city": "SUMATERA BARAT",
            "sub_district": "KAB. KEPULAUAN MENTAWAI",
            "town": "SIPORA UTARA",
            "no_telp": "871983480134",
            "no_hp": "081823666225",
            "land_area": "0.1",
            "commodities": "9c9efa04-cc81-4ae4-b1ae-44807ca9654a",
            "ktp": "000001808723",
            "created_on": "18 Aug 2016, 08:38",
            "updated_on": "18 Aug 2016, 08:38",
        },
        {
            "id":"d1dc9a78-2c0d-48f0-99b3-31c1f6e0091f",
            "manufacturer": "PT. Pupuk Iskandar Muda",
            "code": "9c9efa04-cc81-4ae4-b1ae-44807ca9654a",
            "full_name": "SETIAMAN GULO",
            "status": "SETIAMAN GULO",
            "address": "Aktif",
            "province": "KP. KADU KANDEL, DS. SAMPANG BITUNG RT.001/RW.002",
            "city": "SUMATERA BARAT",
            "sub_district": "KAB. KEPULAUAN MENTAWAI",
            "town": "SIPORA UTARA",
            "no_telp": "871983480134",
            "no_hp": "081823666225",
            "land_area": "0.1",
            "commodities": "9c9efa04-cc81-4ae4-b1ae-44807ca9654a",
            "ktp": "000001808723",
            "created_on": "18 Aug 2016, 08:38",
            "updated_on": "18 Aug 2016, 08:38",
        },
        {
            "id":"d1dc9a78-2c0d-48f0-99b3-31c1f6e0091f",
            "manufacturer": "PT. Pupuk Iskandar Muda",
            "code": "9c9efa04-cc81-4ae4-b1ae-44807ca9654a",
            "full_name": "SETIAMAN GULO",
            "status": "SETIAMAN GULO",
            "address": "Aktif",
            "province": "KP. KADU KANDEL, DS. SAMPANG BITUNG RT.001/RW.002",
            "city": "SUMATERA BARAT",
            "sub_district": "KAB. KEPULAUAN MENTAWAI",
            "town": "SIPORA UTARA",
            "no_telp": "871983480134",
            "no_hp": "081823666225",
            "land_area": "0.1",
            "commodities": "9c9efa04-cc81-4ae4-b1ae-44807ca9654a",
            "ktp": "000001808723",
            "created_on": "18 Aug 2016, 08:38",
            "updated_on": "18 Aug 2016, 08:38",
        },
        {
            "id":"d1dc9a78-2c0d-48f0-99b3-31c1f6e0091f",
            "manufacturer": "PT. Pupuk Iskandar Muda",
            "code": "9c9efa04-cc81-4ae4-b1ae-44807ca9654a",
            "full_name": "SETIAMAN GULO",
            "status": "SETIAMAN GULO",
            "address": "Aktif",
            "province": "KP. KADU KANDEL, DS. SAMPANG BITUNG RT.001/RW.002",
            "city": "SUMATERA BARAT",
            "sub_district": "KAB. KEPULAUAN MENTAWAI",
            "town": "SIPORA UTARA",
            "no_telp": "871983480134",
            "no_hp": "081823666225",
            "land_area": "0.1",
            "commodities": "9c9efa04-cc81-4ae4-b1ae-44807ca9654a",
            "ktp": "000001808723",
            "created_on": "18 Aug 2016, 08:38",
            "updated_on": "18 Aug 2016, 08:38",
        },
        {
            "id":"d1dc9a78-2c0d-48f0-99b3-31c1f6e0091f",
            "manufacturer": "PT. Pupuk Iskandar Muda",
            "code": "9c9efa04-cc81-4ae4-b1ae-44807ca9654a",
            "full_name": "SETIAMAN GULO",
            "status": "SETIAMAN GULO",
            "address": "Aktif",
            "province": "KP. KADU KANDEL, DS. SAMPANG BITUNG RT.001/RW.002",
            "city": "SUMATERA BARAT",
            "sub_district": "KAB. KEPULAUAN MENTAWAI",
            "town": "SIPORA UTARA",
            "no_telp": "871983480134",
            "no_hp": "081823666225",
            "land_area": "0.1",
            "commodities": "9c9efa04-cc81-4ae4-b1ae-44807ca9654a",
            "ktp": "000001808723",
            "created_on": "18 Aug 2016, 08:38",
            "updated_on": "18 Aug 2016, 08:38",
        },
        {
            "id":"d1dc9a78-2c0d-48f0-99b3-31c1f6e0091f",
            "manufacturer": "PT. Pupuk Iskandar Muda",
            "code": "9c9efa04-cc81-4ae4-b1ae-44807ca9654a",
            "full_name": "SETIAMAN GULO",
            "status": "SETIAMAN GULO",
            "address": "Aktif",
            "province": "KP. KADU KANDEL, DS. SAMPANG BITUNG RT.001/RW.002",
            "city": "SUMATERA BARAT",
            "sub_district": "KAB. KEPULAUAN MENTAWAI",
            "town": "SIPORA UTARA",
            "no_telp": "871983480134",
            "no_hp": "081823666225",
            "land_area": "0.1",
            "commodities": "9c9efa04-cc81-4ae4-b1ae-44807ca9654a",
            "ktp": "000001808723",
            "created_on": "18 Aug 2016, 08:38",
            "updated_on": "18 Aug 2016, 08:38",
        },
        {
            "id":"d1dc9a78-2c0d-48f0-99b3-31c1f6e0091f",
            "manufacturer": "PT. Pupuk Iskandar Muda",
            "code": "9c9efa04-cc81-4ae4-b1ae-44807ca9654a",
            "full_name": "SETIAMAN GULO",
            "status": "SETIAMAN GULO",
            "address": "Aktif",
            "province": "KP. KADU KANDEL, DS. SAMPANG BITUNG RT.001/RW.002",
            "city": "SUMATERA BARAT",
            "sub_district": "KAB. KEPULAUAN MENTAWAI",
            "town": "SIPORA UTARA",
            "no_telp": "871983480134",
            "no_hp": "081823666225",
            "land_area": "0.1",
            "commodities": "9c9efa04-cc81-4ae4-b1ae-44807ca9654a",
            "ktp": "000001808723",
            "created_on": "18 Aug 2016, 08:38",
            "updated_on": "18 Aug 2016, 08:38",
        },
        {
            "id":"d1dc9a78-2c0d-48f0-99b3-31c1f6e0091f",
            "manufacturer": "PT. Pupuk Iskandar Muda",
            "code": "9c9efa04-cc81-4ae4-b1ae-44807ca9654a",
            "full_name": "SETIAMAN GULO",
            "status": "SETIAMAN GULO",
            "address": "Aktif",
            "province": "KP. KADU KANDEL, DS. SAMPANG BITUNG RT.001/RW.002",
            "city": "SUMATERA BARAT",
            "sub_district": "KAB. KEPULAUAN MENTAWAI",
            "town": "SIPORA UTARA",
            "no_telp": "871983480134",
            "no_hp": "081823666225",
            "land_area": "0.1",
            "commodities": "9c9efa04-cc81-4ae4-b1ae-44807ca9654a",
            "ktp": "000001808723",
            "created_on": "18 Aug 2016, 08:38",
            "updated_on": "18 Aug 2016, 08:38",
        },
        {
            "id":"d1dc9a78-2c0d-48f0-99b3-31c1f6e0091f",
            "manufacturer": "PT. Pupuk Iskandar Muda",
            "code": "9c9efa04-cc81-4ae4-b1ae-44807ca9654a",
            "full_name": "SETIAMAN GULO",
            "status": "SETIAMAN GULO",
            "address": "Aktif",
            "province": "KP. KADU KANDEL, DS. SAMPANG BITUNG RT.001/RW.002",
            "city": "SUMATERA BARAT",
            "sub_district": "KAB. KEPULAUAN MENTAWAI",
            "town": "SIPORA UTARA",
            "no_telp": "871983480134",
            "no_hp": "081823666225",
            "land_area": "0.1",
            "commodities": "9c9efa04-cc81-4ae4-b1ae-44807ca9654a",
            "ktp": "000001808723",
            "created_on": "18 Aug 2016, 08:38",
            "updated_on": "18 Aug 2016, 08:38",
        },
        {
            "id":"d1dc9a78-2c0d-48f0-99b3-31c1f6e0091f",
            "manufacturer": "PT. Pupuk Iskandar Muda",
            "code": "9c9efa04-cc81-4ae4-b1ae-44807ca9654a",
            "full_name": "SETIAMAN GULO",
            "status": "SETIAMAN GULO",
            "address": "Aktif",
            "province": "KP. KADU KANDEL, DS. SAMPANG BITUNG RT.001/RW.002",
            "city": "SUMATERA BARAT",
            "sub_district": "KAB. KEPULAUAN MENTAWAI",
            "town": "SIPORA UTARA",
            "no_telp": "871983480134",
            "no_hp": "081823666225",
            "land_area": "0.1",
            "commodities": "9c9efa04-cc81-4ae4-b1ae-44807ca9654a",
            "ktp": "000001808723",
            "created_on": "18 Aug 2016, 08:38",
            "updated_on": "18 Aug 2016, 08:38",
        },

    ],
}
