{
  "status": 1,
  "status_txt": "success",
  "message": "Get data successfully.",
  "draw": 1,
  "recordsTotal": 10,
  "recordsFiltered": 10,
  "data" : [
       {
         "id" : 1,
         "produsen" : "Petrokimia",
         "kabupaten" : "Tuban",
         "kecamatan": "babat",
         "produk": "urea",
         "incoterm": "FOT",
         "kondisi" : "ZBKI",
         "tipe_kalkulasi" : "-",
         "amount" : "1.800.000",
         "current": "00",
         "uom":"ton",
         "per_uom":"1",
         "valid_from" : "01-02-2018",
         "valid_to" : "01-02-2028",
         "status": "active"
       },
       {
         "id" : 2,
         "produsen" : "Petrokimia",
         "kabupaten" : "Tuban",
         "kecamatan": "babat",
         "produk": "urea",
         "incoterm": "FOT",
         "kondisi" : "ZBKI",
         "tipe_kalkulasi" : "-",
         "amount" : "1.800.000",
         "current": "00",
         "uom":"ton",
         "per_uom":"1",
         "valid_from" : "01-02-2018",
         "valid_to" : "01-02-2028",
         "status": "active"
       },
       {
         "id" : 3,
         "produsen" : "Petrokimia",
         "kabupaten" : "Tuban",
         "kecamatan": "babat",
         "produk": "urea",
         "incoterm": "FOT",
         "kondisi" : "ZBKI",
         "tipe_kalkulasi" : "-",
         "amount" : "1.800.000",
         "current": "00",
         "uom":"ton",
         "per_uom":"1",
         "valid_from" : "01-02-2018",
         "valid_to" : "01-02-2028",
         "status": "active"
       },
       {
         "id" : 4,
         "produsen" : "Petrokimia",
         "kabupaten" : "Tuban",
         "kecamatan": "babat",
         "produk": "urea",
         "incoterm": "FOT",
         "kondisi" : "ZBKI",
         "tipe_kalkulasi" : "-",
         "amount" : "1.800.000",
         "current": "00",
         "uom":"ton",
         "per_uom":"1",
         "valid_from" : "01-02-2018",
         "valid_to" : "01-02-2028",
         "status": "active"
       },
       {
         "id" : 5,
         "produsen" : "Petrokimia",
         "kabupaten" : "Tuban",
         "kecamatan": "babat",
         "produk": "urea",
         "incoterm": "FOT",
         "kondisi" : "ZBKI",
         "tipe_kalkulasi" : "-",
         "amount" : "1.800.000",
         "current": "00",
         "uom":"ton",
         "per_uom":"1",
         "valid_from" : "01-02-2018",
         "valid_to" : "01-02-2028",
         "status": "active"
       },
       {
         "id" : 6,
         "produsen" : "Petrokimia",
         "kabupaten" : "Tuban",
         "kecamatan": "babat",
         "produk": "urea",
         "incoterm": "FOT",
         "kondisi" : "ZBKI",
         "tipe_kalkulasi" : "-",
         "amount" : "1.800.000",
         "current": "00",
         "uom":"ton",
         "per_uom":"1",
         "valid_from" : "01-02-2018",
         "valid_to" : "01-02-2028",
         "status": "active"
       },
       {
         "id" : 7,
         "produsen" : "Petrokimia",
         "kabupaten" : "Tuban",
         "kecamatan": "babat",
         "produk": "urea",
         "incoterm": "FOT",
         "kondisi" : "ZBKI",
         "tipe_kalkulasi" : "-",
         "amount" : "1.800.000",
         "current": "00",
         "uom":"ton",
         "per_uom":"1",
         "valid_from" : "01-02-2018",
         "valid_to" : "01-02-2028",
         "status": "active"
       },
       {
         "id" : 8,
         "produsen" : "Petrokimia",
         "kabupaten" : "Tuban",
         "kecamatan": "babat",
         "produk": "urea",
         "incoterm": "FOT",
         "kondisi" : "ZBKI",
         "tipe_kalkulasi" : "-",
         "amount" : "1.800.000",
         "current": "00",
         "uom":"ton",
         "per_uom":"1",
         "valid_from" : "01-02-2018",
         "valid_to" : "01-02-2028",
         "status": "active"
       },
       {
         "id" : 9,
         "produsen" : "Petrokimia",
         "kabupaten" : "Tuban",
         "kecamatan": "babat",
         "produk": "urea",
         "incoterm": "FOT",
         "kondisi" : "ZBKI",
         "tipe_kalkulasi" : "-",
         "amount" : "1.800.000",
         "current": "00",
         "uom":"ton",
         "per_uom":"1",
         "valid_from" : "01-02-2018",
         "valid_to" : "01-02-2028",
         "status": "active"
       },
       {
         "id" : 10,
         "produsen" : "Petrokimia",
         "kabupaten" : "Tuban",
         "kecamatan": "babat",
         "produk": "urea",
         "incoterm": "FOT",
         "kondisi" : "ZBKI",
         "tipe_kalkulasi" : "-",
         "amount" : "1.800.000",
         "current": "00",
         "uom":"ton",
         "per_uom":"1",
         "valid_from" : "01-02-2018",
         "valid_to" : "01-02-2028",
         "status": "active"
       }
  ]
}
